# A province can only belong to one area!

#Sea Areas:
#No restriction on size.

western_mediterrenean_area = {
	1293 1294 1295 1296 1297 1298 1300 1301 1302 1303 1304 1305 1307
}

eastern_mediterrenean_area = {
	1308 1309 1310 1311 1312 1313 1314 1315 1316 1317 1319 1320 1932
}

black_sea_area = {
	1321 1322 1323 1324
}

baltic_area = {
	1252 1253 1254 1255 1256 1257 1926 1927 1928
}

kattegat_area = { #Kattegat, Skagerrak, Sound and Belts
	1258 1259 1267
}

north_sea_area = {
	1266 1268 1269 1270 1279 1280 1281 1282 1975
}

norwegian_sea_area = { #Norwegian Sea
	1265 1299 1473 1474 1475 1476 1929
}

white_sea_area = {
	1263 1264 1652
}

red_sea_area = {
	1328 1329 1330 4333
}

persian_gulf_area = { #(+Makran)
	1334 1335 4347
}

arabian_sea_area = {
	1331 1332 1333 1336 1337 1338 1339 1340 1446 1451 1452 1615 4346
}

andaman_sea_area = {
	1345 1347 1348 1349
}

bay_of_bengal_area = {
	1341 1342 1343 1344 1346 1611 1612 1613 1614
}

eastern_indian_ocean_area = {
	1350 1351 1352 1353 1354 1420 1622 1623 1624 1641 1642 1644
}

western_indian_ocean_area = {
 	1450 1453 1454 1455 1616 1617 1618 1619 1620 1621 1625 1626 1627 1628 1629 1630
}

south_indian_ocean_area = {
	1417 1418 1419 1632 1631 1633 1634 1636 1637 1638 1639 1640 1643 1645 1646 1647 3010
}

great_australian_bight_area = {
	1415 1416 1422 1635
}

swahili_coast_sea_area = {
	1447 1448 1449 1456 1457 1458
}

south_china_sea_area = {
	1361 1362 1363 1364 1365 1366 1367 1368 1369 1370 1371 1393 1394 1395
}

celebes_sea_area = { #5
	1359 1398 1399 1400
}

java_sea_area = { #3
	1355 1358 1360
}

east_china_sea_area = { #8
	1372 1373 1374 1375 1389 1392 4233 4234
}

sea_of_japan_area = { #10
	1376 1377 1378 1379 1386 1387 1388 1980 4225 4226
}

sea_of_okhotsk_area = {
	1380 1381 1382 1383 1384 1385 1441
}

berring_sea_area = {
	1442 1443 1444 1445 1667 1668 1679 1678
}

tasman_sea_area = {
	1414 1421 1423 1424 1425 1426 1427 1428 1690 1723 3011
}

coral_sea_area = {
	1405 1406 1407 1411 1412 1429 1430 1431 1432 1726
}

philipine_sea_area = {
	1396 1397 1439 1402 1403 1435 1436 1437 1438 1390 1391 1404 1440 4224
	4357 4358
}

banda_arafura_seas_area = {
	1356 1357 1401 1408 1409 1410
}

gulf_of_alaska_area = {
	1558 1559 1560 1561 1681 1682 1562 1677 1680 3007
}

sea_of_grau_area = {
	1544 1545 1546 
}

chilean_sea_area = {
	1539 1540 1541 1542 1543
}

gulf_of_panama_area = {
	1547 1548 1549 1550
}

bay_of_biscay_area = {
	1275 1276 1277 1278
}

english_channel_area = {
	1271 1272
}

caribbean_sea_area = {
	1512 1513 1514 1515 1516 1517 1518 1519 1520 1521 1522 1523
}

gulf_of_mexico_area = {
	1506 1507 1508 1509 1510 1511
}

sea_of_labrador_area = {
	1483 1484 1493 1494 1495 1496 
}

hudson_bay_sea_area = {
	1485 1486 1487 1488 1489
}

denmark_strait_area = {
	1477 1480 1481 1482 1924
}

gulf_of_guinea_sea_area = {
	1464 1465 1466
}

cape_of_storms_area = {
	1459 1460
}

skeleton_coast_area = {
	1461 1462 1463
}

east_pacific_ocean_area = {
	1433 1434 1666 1669 1670 1671 1672 1673 1674 1675 1676 1683 1691 1692 1698 1733 1734
}

polynesian_triangle_area = {
	1693 1697 1699 1713 1720 1721 1722 1724 1725 1727 1728 1729 1731 1732 1735 1736 1737 1738 1739 
}

south_pacific_area = {
	1700 1701 1702 1703 1704 1705 1706 1707 1708 1709 1710 1711 1712 1716 1717 1718 1719 1730 1740 1741
}

north_pacific_area = {
	1684 1685 1686 1687 1688 1689 1694 1695 1696 1714 1715 
}

north_pacific_coast_area = {
	1551 1552 1553 1554 1555 1556 1557
}

coast_of_brazil_sea_area = {
	1530 1531 1532 1533 1534 1584 1590 1591 1592 1596
}

coast_of_guyana_area = {
	1527 1528 1529 1576 1577
}

celtic_sea_area = {
	1274 1284 1285 1288 1289 
}

west_african_coast_sea_area = {
	1413 1467 1468 1469 1470 1471 1472 1578 1579 1597
}

south_atlantic_area = {
	1585 1586 1598 1599 1600 1601 1602 1603 1604 1605 1606 1608 1609 1610
}

argentine_sea_area = {
	1535 1536 1537 1538 1587 1588 1589 1593 1594 1595 1607
}

gulf_of_st_lawrence_area = {
	1490 1491
}

gulf_stream_area = {
	1492 1499 1500 1501 1502 1504 1570 1571
}

sargasso_sea_area = {
	1526 1568 1569 1572 1573 1574 1575 1580 1581 1582 1583
}

north_atlantic_area = {
	1283 1286 1287 1290 1291 1292 1478 1479 1497 1498 1563 1565 1564 1566 1567
}

bahama_channel_area = {
	1503 1505 1524 1525
}

#Lakes:
#Listed by themselves in order to be easier to remove if needed.

#central_asian_lakes_area = {
#	1326 1327 1653 1654 1888
#}

#chinese_lakes_area = {
#	1655 1895 1896 1897 1898 2000 2001
#}

#baltic_lakes_area = {
#	1260 1261 1262 1250 1251 1883 1884 1885 1886 1887 1977 2953
#}

#african_lakes_area = {
#	1648 1649 1650 1651 1899 1900 1976
#}

#north_american_lake_area = {
#	1658 1659 1660 1661 1662 1663 1664 1665 1903 1904 1905 1906 1907 1908 1909 1910 1911 1912 1914 1915 1916 1917 1923 1918 1919 1921 1922
#}

#central_european_lakes_area = {
#	1325 1889 1890
#}

#caucasian_lakes_area = {
#	1891 1892 1893 1894
#}

#south_american_lakes_area = {
#	1656 1657 1902
#}

#Land Areas:
# A land area is 3 - 10 provinces

########################################
# France					 		   #
########################################

brittany_area = { #5
	color = { 118  99  151 }

	169 170 171 172 4384
}

normandy_area = { #4
	167 168 1879 4385
}

provence_area = { #3
	201 202 2991 4696
}

poitou_area = { #4
	180 4111 4386 4387
}

guyenne_area = { #4
	194 198 4112 174
}

pyrenees_area = { #4
	175 173 176 4694
}

languedoc_area = { #5
	200 2753 4391 4695 196
}

bourgogne_area = { #3
	color = { 144 0 32 }
	192 193 4764
}

west_burgundy_area = { #3
	191 1877 4392
}

massif_central_area = { #3
	color = { 26 26 217 }
	190 195 199 4697 4777
}

savoy_dauphine_area = { #3 Savoy and Dauphiné, Upper Burgundy 
	203 204 205 4719
}

lorraine_area = { #4
	187 188 189 4766
}

picardy_area = { #4
	87 88 89 1743
}

ile_de_france_area = { #4
	182 183 185 4388
}

champagne_area = { #3
	181 186 4390
}

loire_area = { #5
	color = { 231 143 5 }
	177 178 4389
}

orleans_area = {
	184 179 4776
}

########################################
# Low Countries				 		   #
########################################

wallonia_area = { #4
	91 93 94 1866
}

holland_area = { #4
	96 97 98 4383
}

flanders_area = { #3
	90 1865 4769
}

frisia_area = { #5
	99 100 1931 4381 4382
}

brabant_area = { #3
	color = { 118 193 153 }
	92 1744 2974
}

north_brabant_area = { #3
	95 4770 1742
}

########################################
# Iberia					 		   #
########################################

aragon_area = { #4
	211 214 2990 4557
}

catalonia_area = { #5
	197 212 213 2987 2988
}

valencia_area = { #5
	220 1750 4549 4550
}

lower_andalucia_area = { #5
	224 225 1748 1749 4548
}

upper_andalucia_area = { #4
	222 223 226 4546
}

castille_area = { #5
	color = { 58 58 207 }
	215 217 2755 4551 4789
}

toledo_area = { #5
	219 221 2751 2754 4547
}

asturias_area = { #4
	 207 1745 4552 1746
}

galicia_area = { #4
	206 4554 4555 4558
}

baleares_area = {
	333 4559 4560
}

basque_country = { #3
	209 210 2989
}

leon_area = { #3
	color = { 243 235 28 }
	208 216 4553 
}

extremadura_area = {
	4788 218 1747
}

beieras_area = { #4
	231 232 228 1851 4556
}

alentejo_area = { #5
	227 229 230 4150 4787
}

macaronesia_area = { #3
	366 367 368 4565
}

########################################
# Italy					 			   #
########################################

venetia_area = { #5
	108 111 112 1774 4729
}

lombardy_area = { #5
	104 1862 4728 4740 2979
}

po_valley_area = { #3
	color = { 205 190 47 }
	109 4739 107
}

piedmont_area = { #4
	103 1875 2981 4727
}

tuscany_area = { #5
	115 116 117 2978 2980
}

liguria_area = { #3
	101 102 2992
}

corsica_sardinia_area = { #4
	127 1247 2986 4735
}

sicily_area = { #3 # now Eastern Sicily
	124 126 2982
}

western_sicily_area = { #3
	125 4736 4737
}

naples_area = { #3  #Campania
	121 2983 4734
}

lazio_area = { #4 Lazio-Umbria
	118 2976 4731 4732
}

calabria_area = { #3 (+Lucania)
	123 1934 2984
}

apulia_area = { #4
	122 1933 2985 4733
}

emilia_romagna_area = { #5
	color = { 24 222 66 }
	105 106 113 114 4730
}

central_italy_area = { #3
	119 120 2977
}

########################################
# British Isles			 			   #
########################################

munster_area = { #3
	4118 4377 4378
}

connacht_area = { #3
	375 376 4119
}

leinster_area = { #4
	373 374 4120 4379
}

ulster_area = { #3
	372 4121 4380
}

kingdom_of_the_isles_area = { #3
	253 4364 4365
}

highlands_area = { #5
	250 252 369 4110 4363
}

lowlands_area = { #5
	248 249 251 4361 4362
}

wales_area = { #4
	241 242 4366 4369
}

scottish_marches_area = { #4
	246 247 244 4375
}

yorkshire_area = { #4
	245 4367 4368 4785
}

west_midlands_area = { #3
	239 240 4372
}

east_midlands_area = { #3
	243 1861 4376
}

wessex_area = { #5
	233 234 4130 4373 4374
}

home_counties_area = { #4
	235 236 237 4371 
}

east_anglia_area = { #3
	238 1860 4370
}

########################################
# Scandinavia			 			   #
########################################

jutland_area = { #4
	15 1984 4142 4149
}

denmark_area = { #4 +Bornholm
	12 14 1981 1983
}

skaneland_area = { #4
	6  26 1982 4165
}

gotaland_area = { #3 Östra Götaland
	2 3 25 4166
}

vastra_gotaland_area = { #Västra Götaland #4
	7 16 4163 4164
}

svealand_area = { #3
	5 8 1985 
}

ostra_svealand_area = { #4
	1 4 1930
}

norrland_area = { #4
	9 11 18 4114
}

finland_area = { #5
	27 28 29 31 4123
}

bothnia_area = { #3
	19 4113 4152
}

laponia_area = { #3
	315 1777 4151
}

karelia_area = { #4
	30 33 34 1961
}

north_karelia = { #3
	32 309 4124
}

northern_norway = { #3
	10 20 21
}

eastern_norway = { #4
	17 22 4143 4144
}

western_norway = { #4
	23 24 2752 4145
}

subarctic_islands_area = { #4
	1978 1979 370 371
}

greenland_area = { #2
	1104 1105
}

########################################
# Eastern Europe    			 	   #
########################################

estonia_ingria_area = { #3
	36 1834 1842
}

livonia_area = { #4
	37 38 273 4241
}

curonia_area = { #3
	35 39 1935
}

east_prussia_area = { #5
	40 41 767 2958 42
}

west_prussia_area = { #3 (South West Prussia)
	2997 43 1841
}

wielkopolska_area = { #5
   254 4526 255 2963
}

malopolska_area = { #5
	262 4527 2960
}

red_ruthenia_area = { #5 
	261 1940 2424 2961 4541
}

podolia_volhynia_area = { #3
	281 4540 1943 
}

volhynia_area = { # 4
	279 2962 4539 4538
}

pripyat_area = { #4
	 278 1941 4537 4545
}

podlasie_area = {
	269 277 1937
}

mazovia_area = { #4
	256 257  1938 4525
}

central_poland_area = {
	258 1939 4533
}

sandomierz_area = {
	260 2959 259   
}

kuyavia_area = {
	4523 1859 4524 4528
}

samogitia_area = { #4
	270 271 1936 4534 
}

lithuania_area = { #5
	272 770 4535 4536
}

west_dniepr_area = { #4 Right Bank Ukraine
	280 1942 1944 4247
}

east_dniepr_area = { #4 Left bank Ukraine
	290 2407 4542
}

chernigov_area = {
	1945 289 4543
}

sloboda_ukraine_area = { #4
	291 298 299 2408
}

yedisan_area = { #3
	282 1974 2406
}

zaporizhia_area = { #3
	283 2411 2412
}

azov_area = { #4
	286 287 2413 2414
}

crimea_area = { #4
	284 285 2410 2447
}

white_ruthenia_area = { #3
	292 771 4246
}

minsk_area = { #4
	276 4115 4242 4544
}

#Opolye

ryazan_area = { #4
	301 1778 4255
}

moscow_area = { #4
	295 4251 4252
}

vladimir_area = { #3
	307 4147 4253
}

yaroslavl_area = { #4
	308 1753 4117 4250
}

tver_area = { #5
	294 1752 4243 4248 4249 
}

suzdal_area = { #3
	1754 1956 4254
}

smolensk_area = { #4
	293 297 4244 4245
}

oka_area = { #3
	296 300 4116
}

novgorod_area = { #5
	310 311 1959 2749 4260
}

pskov_area = { #4
	274 275 1960 4148
}

vologda_area = { #3
	314 4262 4263
}

beloozero_area = { #3
	312 4259 4261
}

astrakhan_area = { #5
	464 466 468 2416 2417
}

lower_don_area = { #4
	288 467 1971 2409
}

kazan_area = { #3
	1082 2422 4264
}

samara_area = { #3
	473 1081 2423
}

lower_yik_area = { #4
	469 474 2365 2367
}

nogai_area = { #5
	465 470 471 472 2366
}

ural_area = { #5
	1080 1078 1780 2427 2441 
}

pomor_area = { #4
	313 1776 1958 4258
}

arkhangelsk_area = { #4
	1955 4122 4256 4257
}

bashkiria_area = { #5
	475 1965 1966 2420 2444
}

volga_area = { #3
	2421 4265 4267
}

galich_area = { #4
	306 1079 1083 1957
}

kama_area = { #4
	305 1962 1972 4266
}

tambov_area = { #3
	302 304 2415 
}

saratov_area = { #3
	303 2418 2419
}

########################################
# Germany			 				   #
########################################

silesia_area = { #4
	263 264 2966 4238 4723
}

bohemia_area = { #5
	 266 2968 2970 4725 4724
}

erzgebirge_area = { #3
	267 1771 2967
}

lusatia_area = { #3
	60 1763 4778
}

moravia_area = {
	265 4237 4726
}

south_saxony_area = { #4
	59 61 4744 62
}

upper_bavaria_area = { #4
	color = { 180 220 220 }
	65 2955 4707 4708
}

lower_bavaria_area = { #4
	64 1757 2956 2957
}

east_bavaria_area = { #3
	76 4760 4709
} 

lower_swabia_area = { #3 (West Swabia)
	70 4713 4712
}

franconia_area = { #4 (Lower Franconia)
	color = { 121 49 117 }
	4718 4715 71 79
}

upper_franconia_area = { #4
	66 67 4716 4717
}

upper_swabia_area = { #4 (East Swabia)
	68 1868 4711 1872
}

northern_saxony_area = { #4 (Saxe-Altmark)
	color = { 229 20 20 }
	52 58 2964 4741 4742
}

thuringia_area = { #3
	63 2965 4743
}

neumark_area = { #3
	color = { 234 232 44 }
	49 2969 4747
}

mittelmark_area = { #5
	50 51 1759 4748 2993
}

vorpommern_area = { #4
	47 2994 4745 1858 
}

hinter_pommern_area = { #3
	48 2995 4746
}

tirol_area = { #5
	73 110 1768 4710 4758
}

austria_proper_area = { #5
	color = { 213 40 40 }
	133 134 1770 4761 4762
}

inner_austria_area = { #4
	128 132 1863 4759
}

carinthia_area = { #4 # Carniola in-game
	color = { 46 217 110 }
	129 130 1769 4738 4751
}

switzerland_area = { #4
	166 1869 1870 1873 4722
}

romandie_area = { #3
	165 1867 1871 4720 4721
}

upper_rhineland_area = { #3 # now 'Baden'
	72 74 4714 
}

alsace_area = { #3
	75 1880 4765
}

palatinate_area = { #3
	77 1761 4767
}

north_rhine_area = { #4
	84 85 2975 83
}

lower_rhineland_area = { #4
	80 1760 1878 4768
}

westphalia_area = { #3 (South Westphalia)
	82 2972 4775
}

north_westphalia_area = { #4
	56 86 2973 69
}

hesse_area = { #5
	81 1762 1876 4774 78
}

braunschweig_area = { #4
	57 1758 2971 4773
}
   
weser_area = { #4
	54 55 1874 4771
}

holstein_area = { #3
	13 1775 4141 
}

lower_saxony_area = { #4
	44 53 1857 4772
}

mecklenburg_area = { #5
	45 46 2996 4749 4786
}

########################################
# South Eastern Europe 				   #
########################################

macedonia_area = { #5 (Macedonia)
	148 1853 3001 4702 4780
}

morea_area = { #4 Central Greece & Crete
	145 146 163 1773 4701
}

northern_greece_area = { #3 #Northern Greece
	142 144 147 4699 4698
}

thrace_area = { #5
	149 151 1764 4779 4705
}

bulgaria_area = { #5
	150 1765 2746 2750 4703
}

silistria_area = {
	4704 4706 159
}

wallachia_area = { #5
	160 161 2998 4531 4532
}

moldavia_area = { #5
	268 1756 2405 4529 4530
}

transylvania_area = { #4 #Northern Transylvania
	157 158 1952 4127
}

southern_transylvania_area = { #3
	156 1951 4128
}

slovakia_area = { #5
	154 162 1318 1772 4236
}

serbia_area = { #5
	141 3000 4176 4239 4757
}

rascia_area = { #4
	138 1766 1827 4754
}

albania_area = { #4
	143 4174 4175 4750
}

bosnia_area = { #5
	139 140 1831 3002 4755
}

croatia_area = { #4
	color = { 18 126 16 }
	131 1826 1828 4752
}

slavonia_area = { #4
	152 4756 1767 4173
}

east_adriatic_coast_area = { #3
	136 137 4753
}

alfold_area = { #4
	155 1953 1954 4125
}

transdanubia_area = { #5
	color = { 171 92 22 }
	135 153 1864 4126 4240
}

########################################
# Caucasia 							   #
########################################

imereti_area = { #3
	422 462 1856
}

samtskhe_area = { #3
	2196 2204 4303
}

kartli_kakheti_area = { #3
	423 2203 4301
}

armenia_area = { #5
	420 419 2202 2205 4302
}

shirvan_area = { #5 #Northern Azerbaijan
	color = { 225 231 53 }
	421 424 4299 4305 4340
}

circassia_area = { #4
	463 2201 2195 2197
}

dagestan_area = { #5
	425 2198 2199 2208 4306
}


########################################
# Anatolia, The Levant & Mesopotamia   #
########################################

rum_area = { #5
	329 1846 2300 4314 4315
}

erzurum_area = { #3	Erzurum and Trebizond
	330 331 2305
}

hudavendigar_area = { #3
	316 317 2296
}

germiyan_area = { #4
	color = { 234 145 65 }
	322 1848 4308 4311
}

aydin_area = { #5
	color = { 239 70 86 }
	318 319 2297 2298 4309
}

ankara_area = { #3
	color = { 57 154 172 }
	326 4312 4313
}

aegean_archipelago_area = { #4
	164 320 2348 3003 4700
}

kastamonu_area = { #4
	325 328 2299 2304
}

karaman_area = { #4
	323 324 2301 4307
}

cukurova_area = { #3
	color = { 50 177 200 }
	321 327 2302
}

aleppo_area = { #4
	377 1849 2313 4298
}

syria_area = { #4
	378 382 1855 4297
}

trans_jordan_area = { #3
	380 381 2327
}

palestine_area = { #3
	364 379 1854
}

dulkadir_area = { # 4
	color = { 184 54 72 }
	332 2303 2308 4310
}

iraq_arabi_area = { #5 Lower Mesopotamia
	406 409 410 2310 4291
}

basra_area = { #4
	408 2311 2312 4288
}

luristan_area = { #4
	413 414 2209 2210
}

north_kurdistan_area = { #5
	418 2306 2307 4295 4296
}

khuzestan_area = { #5
	412 2217 4289 4290 4342
}

shahrizor_area = {	#4
	color = { 152 102 102 }
	415 2211 4293 4294
}

al_jazira_area = { #5
	color = { 92 200 92 }
	407 411 2309 2314 4292
}


########################################
# Arabia				               #
########################################

bahrain_area = { #5
	394 395 396 2340 2347
}

pirate_coast_area = { #4
	397 398 404 2333
}

nafud_area = { #3
	393 2338 4272
}

tabuk_area = { #4
	383 2328 4268 4269
}

medina_area = { #3
	color = { 225 158 92 }
	384 2329 2330
}

mecca_area = { #5
	385 2331 2332 4277 4278
}

asir_area = { #3
	386 391 4282
}

tihama_al_yemen_area = { #3
	387 2346 4279
}

upper_yemen_area = { #3
	color = { 220 41 155 }
	390 2344 4281
}

yemen_area = { #Lower Yemen #
	388 2345 4280
}

hadramut_area = { #3
	389 2343 4283
}

mahra_area = { #3
	402 1099 4284
}

yamamah_area = { #4
	2335 2336 2339 4275
}

qasim_area = { #4
	392 2337 4273 4274
}

dhofar_area = { #3 (Dhofar + Masirah)
	401 2341 2342
}

oman_area = { #3 (Oman Proper)
	403 4285 4287  
}

mascat_area = { #3 (Batinah and Muscat coast
	399 400 4286
}

syrian_desert_area = { #3
	color = { 219 30 57 }
	405 4270 4271
}

########################################
# North Africa					       #
########################################

gulf_of_arabia_area = { #5
	color = { 19 219 75 }
	365 2315 2320 2321
}

al_wahat_area = { #3
	1233 2318 4323
}

delta_area = { #3
	358 362 363
}

bahari_area = { #4 #Lower Egypt
	color = { 19 193 219 }
	361 2316 4316 4317 
}

vostani_area = { #3 #Middle Egypt
	359 2317 4318
}

said_area = { #5 #Upper Egypt
	360 1231 2319 4319 4320
}

tripolitania_area = { #4
	354 2451 2452 355
}

cyrenaica_area = { #5
	356 357 2325 2326 
}

fezzan_area = { #4
	2448 2449 2474 4567
}

tunisia_area = { #5
	341 2454 2455 2473 4566
}

djerba_area = { #3
	353 2453 2954
}

algiers_area = { #3
	336 2465 4562
}

barbary_coast_area = { #3
	337 2461 338
}

kabylia_area = { #3
	339 340 1882 
}

hautes_plaines_area = { #3
	2459 2462 2463 
}

ouled_nail_area = { #3
	350 351 2458
}

north_saharan_area = { #5
	352 2450 2456 2457 2472
}

tafilalt_area = { #3
	346 349 2460
}

sus_area = { #4
	348 2464 2466 4568
}

southern_morocco_area = { #3
	347 1110 2470 
}

western_morocco_area = { #3
	342 345 2469 4564
}

marrekesh_area = { #3
	343 344 2467 2468
}

northern_morocco_area = { #5
	334 335 1751 4563 4561
}

########################################
# East Africa					       #
########################################

madagascar_highlands_area = { #3
	1792 4023 4027
}

betsimasaraka_area = { #3
	color = { 29 162 26 }
	4021 4024 4025
}

sakalava_area = { #5
	1193 1194 4022 4031 4032
}

southern_madagascar = { #4
	color = { 232 29 34 }
	4026 4028 4029 4030
}

lower_zambezi_area = { #3
	color = { 213 127 69 }
	1187 1190 1191
}

upper_zambezi_area = { #3
	4046 4047 4050
}

shire_area = { #3
	4038 4039 4040
}

butua_area = { #3
	1185 1188 1189
}

zimbabwe_area = { #4
	1184 2950 2951 2952
}

ruvuma_area = { #4
	4036 4037 4043 4042
}

ngonde_area = { #3
	4041 4044 4045
}

mozambique_area = { #4
	788 1195 4049 4020
}

uticulo_makuana_area = { #3
	4034 4035 4048
}

quelimane_area = { #3
	1183 1186 1192
}

limpopo_area = { #4
	789 1181 1182 1800
}

central_swahili_coast_area = { #5
	1196 1197 1198 1199 1201
}

northern_swahili_coast_area = { #3
	1204 2774 2796
}

mombasa_area = { #3
	1200 1202 1203
}

kenya_area = {	#5
	1273 1925 4053 4054 4060
}

jubba_area = { #3
	2777 4051 4052
}

tanzania_area = { #5
	4055 4056 4057 4058 4073
}

buha_area = { #5
	4070 4071 4072 4076 4077
}

buzinza_area = { #3
	4059 4061 4063
}

luba_area = { #4
	4097 4099 4105 4109
}

katanga_area = { #5
	4098 4100 4101 4102 4103
}

zambia_area = { #3
	4104 4106 4108
}

chokwe_area = { #3
	4094 4095 4107
}

rwanda_area = { #3
	4067 4068 4069
}

uganda_area = { #3
	4062 4064 4066
}

bunyoro_area = { #3
	4065 4074 4075
}

kasai_area = { #5
	4083 4087 4091 4092 4093
}

sankuru_area = { #3
	4089 4090 4096
}

lower_kasai = { #4
	color = { 66 114 224 }
	4081 4085 4086 4088
}

ogaden_area = { #5
	1207 1208 1210 2778 2779
}

darfur_central_sahara_area = { #5
	774 1219 2801 2802 2932
}

kurdufan_area = { #3
	color = { 97 110 203 }
	1216 1221 2800
}

lower_nubia_area = { #3
	1234 2322 2323
}

dongola_area = { #3
	1220 1228 1229
}

upper_nubia_area = { #5
	1222 1226 1225 2797 2798
}

sennar_area = { #3
	1217 2799 4033
}

red_sea_coast_area = { #4
	1230 1232 2324 2787
}

tigray_area = { #4
	1227 2766 2767 2771
}

ifat_area = { #4
	1211 1212 2773 2793 
}

somaliland_area = { #5
	1209 2786 2789 2792 2790 
}

southern_ethiopia_area = { #4
	2757 2758 2759 4158
}

hadiya_area = { #3
	1218 2756 2760
}

central_ethiopia_area = { #5
	1214 1223 1224 2769 2772
}

damot_area = { #3
	2762 2763 2770 
}

aussa_area = { #4
	1215 2764 2765 2768
}

shewa_area = { #3
	1213 2761 2791
}

mogadishu_area = { #5
	color = { 239 36 74 }
	1205 2775 2782 2794 2795
}

ajuuran_area = { #4
	2776 2780 2781 2785
}

majarteen_area = { #5
	1206 2024 2783 2784 2788 
}

########################################
# South-Eastern Islands				   #
########################################

mascarenes_area = { #3
	1100 1102 1103
}

indian_ocean_islands_area = { #5
	574 1101 1248 1998 1999
}

papua_area = { #5 (Papuan Peninsula)
	1237 2719 2720 2721 2722
}

vogelkop_area = { #4
	1245 2718 2723 2724
}

melanesia_area = { #4
	1236 1238 1239 1986
	}
	
	fiji_area = { #3
	1242 4937 4938
}

micronesia_area = { #4
	1241 1991 1993 1994
}

west_micronesia_area = { #3
	1235 1995 1996
}

western_australia_area = { #4
	1084 2727 4863 4864
}

northern_australia_area = { #5 (Capricornia)
	2730 2731 2732 4848 4849
}

top_end_area = { #4 (Tiwi and stuff)
	2728 2729 4846 4847
}

eastern_australia_area = { #4 (New South Wales)
	1091 1092 4855 4856
}

southern_australia_area = { #4 (Melbourne/Victoria)
	1087 1088 2734 4861 1089
}

murray_river_area = { #4
	1086 2735 2736 4862
}

illawara_area = { #5
	1090 4857 4858 4859 4860
}

north_queensland_area = { #4
	1094 2733 4850 1093
}

south_queensland_area = { #4
	4851 4852 4853 4854
}

pilbara_area = { #4
	2726 4865 4866 4867
}

tasmania_area = { #3
	1085 4868 4869
}

northern_polynesia_area = { #3
	1240 1997 4934 4935 4936
}

eastern_polynesia_area = { #3
	1244 1987 1988
}

polynesia_area = { #5
	1243 1989 1990 1992
}

te_ika_a_maui_hauauru_area = { #3
	1106 1107 2739
}

te_ika_a_maui_waho_area = { #3
	1108 2737 4939
}

te_waipounamu_area = { #3
	1109 1246 2738
}

########################################
# West Africa					       #
########################################

western_sahara_area = { #5
    1127 1128 1129 1130 2271
}

cap_verde_area = { #2 
    1096 1111 
}

jolof_area = { #4
	1112 1113 1116 2239
}

tekrur_area = { #4
    1115 2237 2240 2244
}

baghena_area = { #4
    2243 2245 2246 2247
}

manding_area = { #4
    1120 1121 1124 2248
}

futa_jallon_area = { #3
    1114 1117 2238
}

massina_area = { #4
    1123 1131 2249 2250
}

jenne_area = { #4
	1134 2259 2261 2263
}

niger_bend_area ={ #5
    1132 1133 2260 2262 2264
}

upper_volta_area = { #5
    1135 1136 1137 2265 2266
}

kong_area = { #4
    1122 1125 2252 2253
}

lower_volta_area = { #5
    1138 2254 2255 2256 2267
}

lower_niger_area = { #5
    1144 1145 1146 1152 1153
}

hausa_area = { #3
    1155 2280 2281
}

katsina_area = { #3
	1148 1149 2279
}

zazzau_area = { #4
	1150 1154 2278 2293
}

bornu_area = { #5
    1157 1160 2282 2283 2284
}

kanem_area = { #5
    1158 1159 2286 2287 2288
}

adamawa_plateau_area = { #4
    1161 1162 1249 2285
}

dendi_area = { #4
    1142 2268 2269 2270
}

azbin_area = { #5
    1156 2272 2273 2274 2276
}

east_azbin_area = { #3
	2275 2277 2475
}

atacora_oueme_area = { #5
    1140 1143 2291 2292 2295
}

gulf_of_guinea_area = { #4
    1151 1163 1164 1165
}

benin_area = { #4
	1147 2289 2290 2294 
}

sao_tome_area = { #2
	1097 1306
}

west_africa_coast_area = { #5
    1126 1139 1141 2257 2258 
}

guinea_coast_area = { #4
    1118 1119 2241 2242
}

south_atlantic_islands_area = { #2
	1095 2025
}

matamba_area = { #3
	2948 4082 4084
}

coastal_kongo = { #5
	1166 1168 4078 4079 4080
}

kongo_area = { #5
	798 1169 1170 1901 2949
}

angola_namibia_area = { #5
	1098 1167 1171 1172 1174 
}

cape_of_good_hope_area = { #5
	833 1175 1177 1179 1180
}

south_african_plateau_area = { #5
	1176 1178 2856 2880 2864
}


########################################
# Greater Persia		               #
########################################

makran_area = { #5
	434 575 2231 2232 2233
}

sistan_area = { #4
	435 2224 2229 2230
}

kalat_area = { #3
	576 577 2068
}

ferghana_area = { #3
	458 460 1967
}

arys_area = { #3
	457 2364 2356
}

kyzylkum_area = { #3
	455 1970 2363
}

transoxiana_area = { #3
	442 453 454
}

termez_area = { #3
	1968 4344 4343
}

khiva_area = { #5
	440 441 1973 2362 2370
}

kabulistan_area = { #4
	color = { 96 219 58 }
	448 451 578 2226
}

transcaspia_area = {
	437 438 439 443 2349
}

mashhad_area = { #4 - Northern Khorasan
	2221 2235 2236 4326
}

herat_area = {	#3 - Eastern Khorasan
	446 4324 4325 
}

birjand_area = { #3 - Western Khorasan
	436 4334 4336 
}

ghor_area = { #3
	color = { 191 176 53 }
	447 449 2225
}

merv_area = { #3
	color = { 60 186 134 }
	444 445 2350
}

balkh_area = { #4
	450 452 2227 2228
}

kerman_area = { #4
	432 2220 2234 4345
}

persian_gulf_coast = { #4
	430 2219 2223 4332 
}

mogostan_area = { #3
	431 2999 4327
}

farsistan_area = { #4
	2218 4329 4330 4331
}

iraq_e_ajam_area = { #5
	427 428 2213 2216 4337
}

azerbaijan_area = { #5 #Southern Azerbaijan
	2212 2215 4300 4338
}

isfahan_area = { #3
	429 433 2222 4335 4171
}

tabriz_area = { #4 Central Azerbaijan
	416 2206 2207 4304
}

tabarestan_area = { #5
	417 426 2214 4339 4341
}

########################################
# India  		                       #
########################################

sirhind_area = {	#4
	510 2065 4411 4463
}

sind_sagar_area = { #3
	2077 2078 4511
}

oudh_area = { #4
	523 2094 4494 4495
}

katehar_area = { #3
	2061 4498 4499
}

purvanchal_area = { #4
	555 2055 2095 4490
}

upper_doab_area = { #3
	522 2060 2062
}

lower_doab_area = { #5
	color = { 212 199 59 }
	524 556 2063 4496 4497
}

lahore_area = { #5 (approximate Lahore Subah)
	507 2075 2076 4510 4513
}

multan_area = { #5 (approximate Multan Subah)
	506 2079 2086 4508 4509
}

naga_hills_area = { #3
	570 573 2041
}

east_bengal_area = { #5
	564 2039 4474 4475 4478
}

north_bengal_area = { #4
	562 2045 2046 4486
}

tripura_area = { #3
	567 2091 4473
}

bihar_area = { #4
	558 4469 4472 4489
}

mithila_area = { #4
	2047 4487 4488
}

jharkhand_area = { #4
	560 2096 4450 4470 4471
}

upper_mahanadi_area = { #5
	553 2082 4447 4451 4452
}

gaur_area = { #3
	563 2044 4479 
}

west_bengal_area = { #4
	561 2081 4476 4477
}

gird_area = { #5 #Gird and Hadoti
	525 528 740 4464 4465
}

baghelkhand_area = { #3
	2097 2098 4468
}

bundelkhand_area = { #5
	559 2059 4459 4466 4467
}

gondwana_area = { #5
	550 551 2092 4458 4460
}

orissa_area = { #5
	552 2038 2043 2049 4441
}

garjat_area = { #5
	547 2048 4445 4446 4448
}

telingana_area = { #3
	2028 4438 4444
}

golconda_area = { #4
	542 2037 4436 4439
}

andhra_area = { #5
	543 549 2084 2080 4425
}

raichur_doab_area = { #3
	532 2033 4428 
}

khandesh_area = {
	527 4434 4453
}

rayalaseema_area = { #5
	541 1949 2090 4423 4424
}

malabar_area = { #5
	534 535 537 4410 4413
}

malwa_area = { #5
	color = { 232 18 18 }
	526 2056 2057 2093 4461
}

mewar_area = { #5
	color = { 126 17 17 }
	518 2058 2087 4501 4462
}

jangladesh_area = { #4
	512 4502 4507 2066
}

marwar_area = { #4
	513 514 2067 4506
}

jaipur_area = { #4
	519 520 2064 4500
}

sindh_area = { #4
	504 2088 4503 4504
}

northern_sindh_area = { #3
	505 2072 4505
}

north_carnatic_area = { #4 (Only the Golcondan Karnatak)
	2083 4418 4419 4420
}

south_carnatic_area = { #5 (Only the Golcondan Karnatak)
	color = { 77 149 195 }
	539 540 1947 2027 4417 
}

madura_area = { #3
	536 2101 4412
}

tanjore_area = { #3
	2026 4415 4416
}

kongu_area = {
	538 2085 4414
}

konkan_area = { #4
	529 530 2089 4429
}

desh_area = { #3
	1946 2034 4431
}

ahmednagar_area = { #5
	544 545 4432 4433 4437
}

kanara_area = { #5
	531 2029 2030 2032 4427
}

maidan_area = { #4 (northern Bayuluseeme)
	569 1948 2035 4435
}

mysore_area = { #5
	533 2031 4421 4422 4426
}

berar_area = { #5
	546 548 2050 4442 4443
}

assam_area = { #5
	566 571 2040 2042 4440
}

himalayan_hills_area = { #4
	509 511 2069 4493
}

nepal_area = { #4
	557 2071 4483 4484
}

baisi_rajya_area = { #5
	2070 4485 4491 4492 554
}

bhutan_area = {
	565 4481 4482
}

kashmir_area = { #5
	508 2073 2074 4449 4521
}

lanka_area = { #North Lanka #3
	2100 4408 4409
}

south_lanka_area = { #3
	572 2099 4407
}

ahmedabad_area = { #5
	516 2051 2054 4512 4457
}

patan_area = { #4
	503 2053 4456 4480
}

tapti_area = { #3
	color = { 18 107 18 }
	517 2036 4430
}

saurashtra_area = { #5
	515 521 2052 4454 4455
}



########################################
# Indo-China  	                       #
########################################

upper_burma_area = { #3
	584 2399 581
}

central_burma_area = {
	4394 4396 585 4395 
}

chindwin_area = {
	2398 580 4393 2397
}

kachin_area = { #4
	582 2395 2396 4404 4405
}

shan_hill_area = { #4
	583 588 2400 4397 4406
}

karenni_area = { #3 #Southern Shan States
	587 2401 4398
}


malaya_area = { #4
	 598 599 2393 4814
}

johor_area = { # 3
	597 2686 4815
}

malacca_area = { #3
	595 596 2392
}

khorat_area = { #5
	612 4836 2383 2386
}

champasak_area = {
	608 4839 4840 2382 4838
}

champa_area = { #5
	606 607 1022 2374 4822
}

tay_nguyen_area = { #3
	2375 4823 4824
}

cambodia_area = { #5
	604 4825 4826 2379
}

angkor_area = { #5
	609 4828 4827 1823 2378
}

lower_burma_area = { #5
	586 590 1815 2403 4399
}

arakan_area = { #3
	568 579 2402
}

mekong_area = { #4
	color = { 220 218 51 }
	605 2376 2377 4829 2380
}

tenasserim_area = { #5
	593 2390 2391
}

north_tenasserim_area = { #5
	591 592 2404 2387 4835
}

north_malaya_area = { # 4
	594 2394 4812 4813
}

vietnam_area = { #4
	610 1016 2373 4821
}

red_river_delta_area = { #5
	613 616 2372 4819 4820
}

north_laos_area = { #4
	615 2371 2381 4837 1844
}

vientiane_area = { #5
	614 2384 2385 611
}

central_thai_area = { #5
	600 4831 4832 4830 603
}

sukhothai_area = { #5
	2388 2389 601 4833 4834
}

northern_thai_area = { #5
	602 1817 589 4842 4841
}

########################################
# Indonesia  	                       #
########################################

mindanao_area = { #3 #East Mindanao
	2701 2702 4355
}

west_mindanao_area = { #3
	652 653 4354
}

visayas_area = { #5
	654 2700 4351 4352 4353
}

palawan_area = { #3
	651 655 4356
}

luzon_area = { #4 (Northern Luzon)
	657 658 2698 4348
}

southern_luzon_area = { #5
	656 2697 2699 4349 4350
}

north_sumatra_area = { # 5
	617 2673 2685 2674 4809
}

batak_area = { #4
	 619 4811 2684 2682
}

central_sumatra_area = { #4
	620 2675 618 4810
}

jambi_area = { # 4
	2677 659 2676 4816
}
 
minangkabau_area = { #5
	2680 2681 2683 4817 4818
}

south_sumatra_area = { #5
	621 622 623 2678 2679
}

east_java_area = { #3
	627 2691 4794
}

surabaya_area = { #4
	629 4793 628 2692
}

central_java_area = { #4
	626 2689 2690 4792
}

west_java_area = { #3
	2688 625 4791
}

banten_area = { #4
	624 630 2687 4790
}

kutai_area = { #5
	638 2712 4799 2711 2710
}

sabah_area = { # 3
	2709 637 2703
}

brunei_area = { #5
	636  2704 2705 4805 4806
}

kalimantan_area = { #5
	640 2706 4802 4803 4804
}

banjar_area = { # 5
	639 2707 4800 4801 2708
}

molluca_area = { #4
	645 2717 646 647
}

spice_islands_area = { #3
	648 649 650 
}

lesser_sunda_islands_area = { #3
	631 632 634 2693
}

timor_area = { #5
	633 635 2695 2696 2725
}

makassar_area = { # 4
	4797 4798 4795 641
}

sulawesi_area = { #4
	643 644 2713 2714 4845
}

south_sulawesi_area = { #4
	642 2715 2716 4796
}

########################################
# Korea & Japan                        #
########################################

pyongan_area = { #3
	1845 2744 4232
}

hamgyeong_area = { #3
	732 2742 2743
}

western_korea_area = { #4 (Hwanghae + Gyeonggi)
	733 735 4230 4231
}

eastern_korea_area = { #5 (Gangwon +  Gyeongsang)
	734 736 2694 2745 4227
}

south_korea_area = { #4 (Jeolla, Chungcheong) +Jeju
	 737 1013 2741 4228 4229
}

hokkaido_area = { #5
	1031 1032 1847 1852 4193
}

hokuriku_area = { #3
	1023 1024 1837
}

kanto_area = { #3 #Western Kanto
	1028 1843 4189
}

eastern_kanto_area = { #3
	1027 4190 4191
}

kyushu_area = { #4 #Southern Kyushu
	1012 1015 4180 4181
}

northern_kyushu = {
	1014 1818 4182 4651
}

shikoku_area = { #3
	1819 1820 4186
}

eastern_chubu_area = { #4
	1029 1839 4188 4360
}

chubu_area = { #3 (Western Chubu)
	color = { 219 83 61 }
	1030 1835 4359
}

kinai_area = { #4
	color = { 208 206 65 }
	1020 1021 1832 4187
}

thohoku_area = { #4
	1025 1026 4131 4192
}

sanindo_area = { #4
	1018 1830 4183 4185 
}

saigoku_area = { #4 #Sanyodo
	1017 1019 1825 4184
}

########################################
# North Asia     	                   #
########################################

kamchatka_area = { #5
	1034 1035 1038 2440
}

kolyma_area = { #5
	1036 1037 1039 1040 2439
}

okhotsk_area = { #4
	1043 1044 1047 1041 
}

yakutia_area = { #5
	1045 1054 2435 2437 2438
}

sakha_area = { #3
	1042 1046 1051 1052
}

buryatia_area = { #5
	1056 1057 1058 2446
}

tunguska_area = { #5
	1061 2431 2432 1062 2443
}

central_siberia_area = { #5
	1067 1068 2430 2445 
}

kara_area = { #5
	1069 1072 1073 2429 4691
}

ob_area = { #4
	2428 1064 1065 1070 2433
}

irkutsk_area = { #5
	1060 2442 2436 1055 1059 
}

perm_area = { #5
	1077 1755 1963 1964 4129
}

balchasj_area = { #5
	477 478 2355 2360 4685
}

kazakhstan_area = { #5
	476 2351 2353 2358 2359
}

syr_darya_area = { #4
	456 1969 2352 2361
}

yrtesh_area = { #5
	480 1071 2434 4687 4688 4689
}

ishim_area = { #5
	1074 1075 1076 2369 4692
}

aqmola_area = { #5
	479 2354 2357 4686 4690
}

########################################
# China      	                       #
########################################

heilongjiang_area = { #3 (West Heilongjiang)
	724 1053 2102 4664
} 

east_heilongjiang_area = { #4
	1049 2104 4662 4659 2103
}

central_heilongjiang_area = {#4
	727 728 2185 4200 4660
}

cicigar_area = {
	4218 725 4665
}

ilan_hala_area = { #5 (North Jilin Area)
	1048 1050 4214 4216 4215
}

sakhalin_area = { #2
	1033 4658
}

central_jilin_area = { #5
	729 731 2105 4217 4663
}

ningguta_area = { #5
	2107 2108 4654 4661 4653
}

furdan_area = {
	1850 2106 2186 4655 4656
}

jilin_area = { #4 (South Jilin Area)
	730 2110 2188 4201 2111
}
 
liaoning_area = { #5
	704 726 2112 2113 4652
}

ordos_area = { #4 (Western Inner Mongolia)
	701 709 2191 4223 4676
}

eastern_mongolia = { #5
	2109 2187 4202 4674
}

chahar_area = {
	722 4203 4675 4672 2115
}

inner_mongolia_area = { #5
	702  2114 2747 4671 4670
}

outer_mongolia_area = { #5
	717 721 2116  4220
}

xilin_gol_area = {
	4219 4673 723 4666 4667
}

altai_sayan_area = { #3
	color = { 203 84 84 }
	718 2117 4222 4680 4682
}

tannu_uriankhai_area = {#3
	716 1063 1066 4679
}

central_mongolia_area = { #3
	720 2193 4221 4669 4677
}

uliastai_area = {#3
	719 2189 2190 4668 4678
}

jetysuu_area = { #5
	color = { 56 37 169 }
	459 461 2125 2126 2368
}

kashgaria_area = { #5 #Just Kashgar & Yarkand
	739 2124 2127 4209 4210
}

tarim_basin_area = { #3 #The rest of the Seven Cities
	712 2121 2192
}

shanshan_area = { #4
	710 711 2123 4693
}

turpan_kumul_area = { #4
	2122 4206 4207
}

zungaria_area = { #5
	color = { 65 220 28 }
	713 715 2120 4208 4683
}

amdo_area = { #4
	705 706 2134 4204 
}

tsang_area = { #5
	677 2130 4205 4517 4519
}

north_zungaria = { #3
	714 2118 2119 4681 4684
}

kham_area = { #5
	678 2131 2132 2133 2135 
}

utsang_area = { #4
	676 4514 4515 4518
}

ngari_area = { #3
	2128 4516 4520
} #new!!

hebei_area = { #4 (North Hebei)
	703 1816 2136 4194
}

south_hebei_area = { #4
	695 696 2137 4195
}

shandong_area = { #5
	690 691 2138 2139 2140
}

jiangsu_area = { #3
	2141 2142 4196
}

south_jiangsu_area = { #4
	685 1821 1822 2145
}

anhui_area = { #3 (North Anhui)
	1838 2143 2144
}

south_anhui_area = { #3
	686 2146 2147
}

zhejiang_area = { #5
	684 1824 2148 2149 2150
}

jiangxi_area = { #4
	 670 683 1833 2151
}

fujian_area = { #4
	669 1829 2152 2153
}

taiwan_area = { #3
	738 2154 2155
}

guangdong_area = { #5
	667 668 2156 2157 2158
}

west_guangdong_area = { #5
	665 666 2159 2160 2161 
}

guangxi_area = { #5
	664 1840 2162 2163 2164
}

yun_gui_area = { #5 (Yun-Gui Hinterland)
	662 663 673 674 4199
}

yun_gui_borderland_area = { #5
	660 661 2165 2166 2167
}

sichuan_area = { #3
	679 680 4212
}

chuannan_area = { #4
	675 2168 2748 4213
}

chuanbei_area = { #3
	2169 2170 4211
}

huguang_area = { #5 (Hubei)
	681 682 2171 2172 4197
}

hunan_area = { #4
	671 672 2173 2174
}

henan_area = { #3 (South Henan)
	687 2175 2176
}

north_henan_area = { #3
	688 692 1836
}

shanxi_area = { #5
	693 694 697 2177 2178
}

shaanxi_area = { #4
	689 700 2179 4198
}

gansu_area = { #5 (East Gansu)
	698 699 2180 2181 2183
}

west_gansu_area = { #4 
	707 708 2182 2184
}

########################################
# South America    	                   #
########################################

rio_grande_do_sol_area = { #4
	2857 2879 2884 2887
}

minas_gerais_area = { #4
	765 2892 2894 2899
}

diamantina_area = { #3
	759 2898 2891
}

goias_area = { #5
	758 2906 2907 2908 2919
}

pontal_area = { #3
	2909 2910 2911
}

mato_grosso_area = { #4
	2888 2903 2904 2905
}

ofaie_area = { #3
	2881 2893 2920
}

guapore_area = { #3
	2900 2901 2902
}

sao_paolo_area = { #3
	766 769 2896
}

west_sao_paolo_area = { #3
	768 2895 2897
}

rio_de_janeiro_area = { #4
	761 762 763 764
}

bahia_area = { #5
	756 757 760 2914 2916
}

pernambuco_area = { #5
	754 755 2912 2921 2922
}

ceara_area = { #3
	750 751 753
}

sao_francisco_area = { #5
	2885 2913 2915 2917 2918
}

maranhao_area = { #5
	749 2923 2924 2926 2927
}

piaui_area = { #3
	752 2886 2925
}

grao_para_area = { #4
	748 2890 2928 2929 
}

amapa_area = { #3
	747 2935 2938
}

amazon_area = { #4
	2889 2930 2933 2934
}

paraguay_area = { #5
	775 776 799 2882 2883
}

patagonia_area  = { #3
	781 782 2869
}

bahia_blanca_area = { #3
	780 786 2868
}

patagonian_andes = { #4
	2863 2870 2875 2876
}

cuyo_area  = { #5
	2843 2844 2845 2847 2877
}

nehuenken_area = { #4
	785 2867 2871 2872
}

southern_pampas_area  = { #5
	779 2860 2861 2865 2866 
}

buenos_aires_area = { #4
	778 2846 2848 2849
}

misiones_area = { #5
	777 2853 2855 2858 2859
}

tucuman_area  = { #3
	791 2836 2842
}

jujuy_area = { #3
	794 2837 2839
}

chaco_area  = { #4
	790 2854 2878
}

banda_oriental_area = { #5
	772 773 2850 2851 2852
}

guyana_area = { #4
	502 743 744 2803 
}

suriname_area = { #3
	745 746 2937
}

upper_guyana_area = { #5
	742 2804 2811 2931 4617
}

quito_area = { #5
	816 817 819 820 2820
}

iquitos_area = { #3
	815 818 821
}

venezuela_area = { #5
	741 831 2808 4612 4616
}

maracaibo_area = { #5
	830 2807 4609 4610 4611
}

eastern_llanos = { #4
	2805 2809 2939 4615
}

western_llanos = { #4
	2812 2814 2815 4608
}

central_llanos_area = {
	834 2810 2813 4613 4614
}

bogota_area = { #4
	825 832 4602 4603
}

popayan_area = { #4	
	823 826 2818 4596 4604
}

colombian_amazonas_area = { #3
	822 2816 4605
}

cordillera_occidental_area = { #5
	824 827 2817 4600 4607
}

coquivacoa_area = { #5
	828 829 2806 4599 4601
}

northern_chile_area = { #5
	792 793 796 2840 2841
}

central_chile_area = { #3
	784 787 2862
}

southern_chile_area = { #3
	783 2873 2874
}

antisuyu_area = { #4
	802 804 2831 2947
}

kuntisuyu_area = { #4
	807 808 2829 2830
}

peruan_coast = { #3
	805 806 2828
}

chimor_area = { #5
	812 2002 2821 2822 2826
}

ucayali_area = { #3
	2823 2944 2945
}

cajamarca_area = { #4
	813 2824 2825 2943
}

huanuco_area = { #5
	809 810 811 814 2827
}

beni_area = { #3 - Beni Savannah
	800 801 2834
}

moxos_area = { #3
	803 2832 2833
}

upper_peru = { #4
	2835 2838 2941 2942
}

potosi_area = { #4
	795 797 2940 2946
}

########################################
# North America    	                   #
########################################

great_woods_area = { #3
    970 2562 2564
}

maine_area = { #5
    2013 2565 4873
}

eastern_maine_area = { #3 NEW
    971 2566 2567
}

massachusetts_bay_area = { #4
   966 968 2561 4874
}

connecticut_valley_area = { #3
    967 2010 2560
}

hudson_valley_area = { #4
    961 963 964 2559 4912
}

new_york_area = { #3 NEW
    965 2558 2639
}

delaware_valley_area = { #4
    956 957 962 2023
}

iroquoisia_area = { #4
    958 959 960 4872
}

south_iroquoisia_area = { #3
    969 2563 4871
}

susquehanna_area = { #4
    955 2556 2557 4876
}

westsylvania_area = { #3 NEW
    954 2555 4875
}

maryland_area = { #3
    953 2553 2554
}

chesapeake_area = { #5
    950 952 2549 2550 4877
}

great_valley_area = { #3
    949 2011 2548
}

piedmont_north_america_area = { #3
    2544 2545 4878
}

carolinas_area = { #4
    937 938 2546 2547
}

south_carolina_area = { #3
	932 2542 2543
}

south_carolina_piedmont_area = { #4 NEW
	933 2541 4882
}

american_georgia_area = { #5
    929 2537 2538 2539 4880
}

upper_american_georgia_area = { #4
	930 931 2540 4881
}

florida_area = { #3
    926 2535 2536 4626 4625
}

north_florida_area = { #5
    927 928 2534
}

appalachia_area = { #3
    951 2551 2552 4889
}

south_appalachia_area = { #3
    935 936 2527 4879
}

west_florida_area = { #5
    921 922 923 2530 2533
}

mississippi_area = { #4
    919 920 2528 2529 4884
}

choctaw_area = { #4
    918 934 939 4913
}

alabama_area = { #5
    924 925 2531 2532 4883
}

kentucky_area = { #3
    941 2526 4888
}

western_kentucky_area = { #3 NEW
    940 4887 4921
}

ohio_country_area = { #5
    946 947 948 2525 4907
}

miami_river_area = { #5
	942 943 2523 2524 4922
}

illinois_country_area = { #4
    915 916 917 4903
}

southern_illinois_area = { #3 NEW
    2519 2520 4904
}

mississippi_plain_area = { #5
    894 895 897 4885 4923
}

michigan_area = { #4
    944 945 2521 2522
}

lake_superior_area = { #5
    910 911 2517 2518 4898
}

wisconsin_area = { #4
	912 913 914 4899
}

lower_louisiana_area = { # 3
    893 2014 2516
}

upper_louisiana_area = { #4
    900 902 2514 4906
}

ozarks_area = { #3
    899 2509 2515 4886
}

iowa_area = { # 4 NEW
    905 2513 4900 4905
}

lower_plains_area = { #3
	891 892 896 4908
}

central_plains_area = { #5
    901 903 2009 2508 4915
}

kansas_area = { #4 NEW
    890 898 2672 4914
}

high_plains_area = { #5
    889 2507 2625
}

dakota_area = { #4
    906 909 2510 4918
}

south_dakota_area = { #3
    907 2007 2008 4916
}

minnessota_area = { #4 NEW
    904 908 2512 4901
}

upper_missouri_area = { #5
    2006 2501 2502 2503 4917
}

badlands_area = { #3
    1809 2504 2505
}

llano_estacado_area = { #5
	882 885 2496 2497 4630
}

texas_area = { #4
    884 888 2665 2669
}

coastal_prarie_area = { #4
    887 883 4627 4911
}

texas_plains_area = { #4 NEW
    886 2500 4909 4910
}

oregon_area = { #4
    872 2481 2482 2483
}

columbia_river_area = { #4
    873 2486 2487 2488
}

snake_river_area = { #5
    2019 2020 2489 2490 2506
}

salish_sea_area = { #3
   874 2484 2485
}

interior_plateau_area = { #4
    2003 2604 2605 2606 2607
}

hecate_strait_area = { #3
    975 2022 2609
}

alaska_area = {  #4
    978 979 2611 2612
}

east_alaska_area = { #3
    976 977 2613
}

lower_acadia_area = { #5
    982 984 2568 2569 4891
}

straits_of_georgia_area = { #4
   972 973 974 2610
}
upper_acadia_area = { #3
   983 985 2572
}

st_john_valley_area = { #3 NEW
   2570 2571 4896
}

newfoundland_area = { #3
    980 981 2573
}

labrador_area = { #3
    997 2574 2575
}

cote_nord_area = { #4
    996 2576 2577 2578 2579 
}

notre_dame_mountains_area = { #5
    986 994 995 2582 2583
}

lower_canada_area = { #3
    993 2584 4895
}

trois_rivieres_area = { #4 NEW
    990 2012 2580 4893
}

upper_canada_area = { #3
    987 2586 2587
}

laurentian_area = { #3
    992 2581 4894
}

upper_ontario_area = { #5
    991 1001 1007 2015 2671
}

huronia_area = { #4
    989 988 2585 2670  
}

ottawa_valley_area = { #3 NEW
    4890 4892 4897
}

james_bay_area = { #5
    998 999 1000 1003 1004
}

inner_ontario_area = { #5
	1002 2588 2589 2590 2591
}

hudson_bay_area = { #5
    1005 1006 1009 2592 2594
}

red_river_area = { #3
    2016 2511 4902
}

manitoba_area = { #5 NEW
    1008 1010 1011 2593 4919
}

assiniboia_area = { #3
    2005 2596 2598 4920
}

saskatchewan_area = { #3
    1813 2595 2597
}

prairies_area = { #5
    2004 2017 2018 2602
}

athabasca_area = { #5
    2599 2600 2601 2603
}

northeast_mexico_area = { #5
    861 2619 2666 2667 4606
}

durango_area = { #3
    860 4647 4648 4646 4648
}

chihuahua_area = { #4
    863 864 2618 4644
}

pecos_area = { #3
    2498 4628 4629
}

rio_grande_area = { # 4
    858 2499 2614 2668
}

sonora_area = { #5
    862 2616 4649 4650 4577
}

new_mexico_area = { #5
    880 881 2495 4631 4632
}

apacheria_area = { #3
    879 2492 4634
}

colorado_plateau_area = { #4
    875 878 2493 2494
}

arizona_area = { #5
     877 867 876 2491 4633
}

california_area = { #5
    868 869 2021 2476 4637
}
 
central_valley_area = { #4
    870 2478 4635 4636
}

northern_california_area = { #5
    871 2477 2479 2480 4638
}

baja_california_area = { #4
    865 866 2620 4639
}

jalisco_area = { #5
    2617 2621 2657 4576 854
}

nayarit_area = { #4
    855 859 4578
}

michoacan_area = { #5
    2622 2623 2624 4573 4574
}

tierra_caliente_area = { #5
    851 2643 4575 4579 4580
}

gran_chichimeca_area = { #3 
   857 2642 4642
}

guanajuato_area = { #3
   853 2615 4641 4640
}

zacatecas_area = { #4
    856 4643 4645
}

mexico_area = { #5
    852 2626 4570 4571 4572
}

puebla_area = { # 5
    850 2628 2644 4583 4582
}

guerrero_area = { #3
    2627 2645 2648
}

oaxaca_area = { #3
    844 2629 4584
}

mixteca_area = { #4
    847 849 2646 4581
}

eastern_mexico_area = { #5
    2630 2631 2647
}

huasteca_area = {
    848 2641 4598
}

chiapas_area = { #4
    2635 2638 2649 4585 4586
}

yucatan_area = { #5
    846 2633 2651 4590
}

east_yucatan_area = { #4
    2634 2652 4588 4591
}

campeche_area = { #3
    845 2632 2650 
}

guatemala_area = { #4
   839 841 2653 4587
}

guatemala_lowlands_area = { #5
    842 843 2636 4589 4594
}

honduras_area = { #4
    840 2637 2640 2662 4593
}

nicaragua_area = { #5
    837 838 2660 2661 4592
}

costa_rica_area = { #3
    2663 836 4597
}

panama_area = { #5
    835 2664 2819 4595
}

cuba_area = { #5
    484 485 4622 4623 4624
}

east_cuba_area = { #3
    486 2654 2655 2656
}

hispaniola_area = { #4
    488 489 4618 4619
}

dominica_area = { #5
   490 2658 2659 4620 4621
}

greater_antilles_area = { #4
    487 481 491 492
}

lucayan_area = { #2
	482 483
}

leeward_islands_area = { #5
    493 494 495 496 1881
}

windward_islands_area = { #5
    497 498 499 500 501
}

transvaal_area = { #4
	4781 4782 4783 4784
}

#############################
#Deprecated:
#############################

great_moluccas_area = {

}

khorasan_area = {
}

libyan_desert_area = {
	 
}

gharbia_area = {
}

sharqiya_area = {
}

central_egypt_area = {
}

upper_egypt_area = {
}

eastern_mediterrenean_islands_area = {
}

western_aegean_area = {
}

odishi_area = {
}

georgia_area = {
}

rakka_area = {
}

south_kurdistan_area = {
}

east_china_sea_islands_area = {

}

east_african_islands_area = {
	 
}

arabian_sea_islands_area = {
	 
}

baltic_islands_area = {
	 
}

east_altishahr_area = {

}

amnok_area = {

}

north_korea_area = {

}

hejaz_area = {

}

sarat_area = {
	
}

ad_dahna_area = {
}

najd_area = {

}

northern_england_area = {
}

mercia_area = { 
}

eastern_ireland_area = {
}

western_ireland_area = {
}


seine_area = {
}

luxemburg_liege_area = {
}

coromandel_area = {
}

carnatic_area = {

}

kerala_area = {

}
maharashtra_area = {

}
gujarat_area = { }

central_doab_area = {
}

nepalese_area = { }

pomerelia_area = { }

sonora_y_sinaloa_area  = { }

magadan_area = { }

netherlands_area = { }

indonesian_islands_area = {  }

iceland_area = { }

ceram_area = { }

south_laos_area = { }
