#1056 - Barguzinsky

owner = KHA
controller = KHA
add_core = KHA
culture = buryat
religion = tengri_pagan_reformed
capital = "Barguzin"
trade_goods = fur
hre = no
base_tax = 3 
base_production = 3
base_manpower = 3
is_city = yes

discovered_by = nomad_group
discovered_by = BRT

1632.1.1 = { discovered_by = RUS }

1653.1.1 = {
	owner = RUS
	controller = RUS
	religion = orthodox
	culture = russian
} # Pyotr Beketov
1678.1.1 = { add_core = RUS }
