#2445 - Mangazea

culture = samoyed
religion = tengri_pagan_reformed #Sami Shamanism
capital = "Mangazea"
trade_goods = fur
hre = no
base_tax = 3 
base_production = 3
base_manpower = 1
native_size = 1
native_ferocity = 1
native_hostileness = 1
extra_cost = 10

add_permanent_province_modifier = {
	name = mangaeza_estuary_modifier
	duration = -1
}

1600.1.1 = {
	discovered_by = RUS
	owner = RUS
	controller = RUS
	religion = orthodox
	culture = russian
	is_city = yes
}
1605.1.1 = { add_core = RUS }
1700.1.1 = { base_tax = 1 base_production = 1 }
